c FILE: queen10_10.col
c Translated from Stanford GraphBase File: queen10_10.gb
c Stanford GraphBase ID: gunion(board(10,10,0,0,-1,0,0),board(10,10,0,0,-2,0,0),0,0)
p edge 54 175
e 10 0
e 10 2
e 10 8
e 10 1
e 11 2
e 11 3
e 11 9
e 11 1
e 12 2
e 12 6
e 12 3
e 12 0
e 13 1
e 13 0
e 13 2
e 13 6
e 14 1
e 14 0
e 14 2
e 14 6
e 15 5
e 15 4
e 15 8
e 15 2
e 16 5
e 16 8
e 16 0
e 16 7
e 17 2
e 17 6
e 17 8
e 17 7
e 18 3
e 18 8
e 18 6
e 18 2
e 19 3
e 19 6
e 19 0
e 19 2
e 20 0
e 20 2
e 20 1
e 20 8
e 21 6
e 21 7
e 21 8
e 21 3
e 22 7
e 22 3
e 22 2
e 22 6
e 23 3
e 23 2
e 23 8
e 23 9
e 24 8
e 24 4
e 24 7
e 24 0
e 25 5
e 25 0
e 25 6
e 25 2
e 26 6
e 26 3
e 26 5
e 26 7
e 27 7
e 27 8
e 27 3
e 27 2
e 28 5
e 28 0
e 28 2
e 28 9
e 29 6
e 29 2
e 29 3
e 29 5
e 30 6
e 30 2
e 30 7
e 30 9
e 31 2
e 31 3
e 31 6
e 31 0
e 32 3
e 32 7
e 32 6
e 32 8
e 33 6
e 33 9
e 33 7
e 33 3
e 34 0
e 34 2
e 34 5
e 34 3
e 35 4
e 35 3
e 35 7
e 35 5
e 36 1
e 36 4
e 36 0
e 36 7
e 37 4
e 37 1
e 37 8
e 37 2
e 38 7
e 38 4
e 38 2
e 38 8
e 39 5
e 39 7
e 39 8
e 39 3
e 40 8
e 40 7
e 40 3
e 40 9
e 41 7
e 41 3
e 41 6
e 41 5
e 42 7
e 42 8
e 42 5
e 42 9
e 43 2
e 43 3
e 43 6
e 43 9
e 44 2
e 44 6
e 44 1
e 44 0
e 45 4
e 45 5
e 45 2
e 45 3
e 46 0
e 46 2
e 46 3
e 46 6
e 47 4
e 47 7
e 47 0
e 47 9
e 48 0
e 48 8
e 48 6
e 48 2
e 49 7
e 49 8
e 49 3
e 49 9
e 50 3
e 50 4
e 50 6
e 50 7
e 51 7
e 51 6
e 51 3
e 51 2
e 52 0
e 52 2
e 52 1
e 52 7
e 53 4
e 53 3
e 53 5
e 53 9

