-----------------------------------------
cwd=2
-----------------------------------------
k=2
       2-2-COLORING 15 states 162 rules 
       2-2-COLORING 11 states 100 rules (simplifié)
det-of-2-2-COLORING 11 states 100 rules 
sim-of-2-2-COLORING  7 states  50 rules
in 0.05sec
not 2-coloriable: 
add_a_b(oplus*(add_a_b(oplus*(a,b)),ren_b_a(add_a_b(oplus*(a,b)))))
-----------------------------------------
k=3
       2-3-COLORING  63 states 2174 rules
       2-3-COLORING 33 states 659 rules 
det-of-2-3-COLORING 37 states 814 rules 
sim-of-2-3-COLORING 14 states 147 rules
in 0.9sec
not 3-coloriable: 
add_a_b(oplus*(add_a_b(oplus*(add_a_b(oplus*(a,b)),ren_a_b(oplus*(add_a_b(oplus*(a,b)),ren_b_a(add_a_b(oplus*(a,b))))))),ren_b_a(add_a_b(oplus*(add_a_b(oplus*(a,b)),ren_a_b(oplus*(add_a_b(oplus*(a,b)),ren_b_a(add_a_b(oplus*(a,b))))))))))
-----------------------------------------
k=4
       2-4-COLORING 255 states  33238 rules 
       2-4-COLORING  95 states 4838 rules* simplifié  puis cprojection
det-of-2-4-COLORING  95 states 4845 rules* simplifié
sim-of-2-4-COLORING  23 states  345 rules*
Total in 26.934sec ??
Total in 1mn23sec faucon64 2010-03-04

-----------------------------------------
k=5    2-5-COLORING 1023 states 526074 rules
       2-5-COLORING 273 states 38199 rules simplifié
det-of-2-5-COLORING 212 states 23213 rules 
sim-of-2-5-COLORING 36 states 773 rules 
Total in 27min 21.19sec
Total in 145min 32.786sec 2010-03-08 faucon64
-----------------------------------------
cwd=3
-----------------------------------------
k=2
       3-2-COLORING  63 states  2505 rules déjà simplifié
det-of-3-2-COLORING 405 states 85488 rules (in 24.117 sec  l64 faucon 2012-11-07)
sim-of-3-2-COLORING  55 states  1972 rules (in 26.992 sec l64 faucon 2012-11-07)
Total in 29.669sec
-----------------------------------------
k=3
       3-3-COLORING 511 states 134535 ou 134536 rules (in 50sec) déjà simplifié
la déterminisation est en cours depuis des dizaines d'heure
k=4
       3-4-COLORING 4095 states 8415027 in 420min 53sec
-----------------------------------------
-----------------------------------------
cwd=4
-----------------------------------------
k=2
       4-2-COLORING 255 states 36566 rules  (deja simplifie)
       determinization out
k=3 
4-COLORING-3 4095 states 25215099 rules* in 479min 18.08sec (pas simplifie)

